%YAML 1.1
%TAG !u! tag:unity3d.com,2011:
--- !u!114 &11400000
MonoBehaviour:
  m_ObjectHideFlags: 0
  m_CorrespondingSourceObject: {fileID: 0}
  m_PrefabInstance: {fileID: 0}
  m_PrefabAsset: {fileID: 0}
  m_GameObject: {fileID: 0}
  m_Enabled: 1
  m_EditorHideFlags: 0
  m_Script: {fileID: 11500000, guid: e2fe5daa01734ec7b0f40070937b8b1f, type: 3}
  m_Name: _ThemesDatabase
  m_EditorClassIdentifier: 
  ThemesNames:
  - General
  Themes:
  - {fileID: 11400000, guid: 6f361b6b7c3e8fb4d9af57e69ff47002, type: 2}
