%YAML 1.1
%TAG !u! tag:unity3d.com,2011:
--- !u!114 &11400000
MonoBehaviour:
  m_ObjectHideFlags: 0
  m_CorrespondingSourceObject: {fileID: 0}
  m_PrefabInstance: {fileID: 0}
  m_PrefabAsset: {fileID: 0}
  m_GameObject: {fileID: 0}
  m_Enabled: 1
  m_EditorHideFlags: 0
  m_Script: {fileID: 11500000, guid: 2a151aae416b497c9eaea8aa5ac1c555, type: 3}
  m_Name: Theme_General
  m_EditorClassIdentifier: 
  m_themeName: General
  SerializedGuid: 45cef80286225144a8a707aebb6b1a8e
  m_activeVariant:
    m_variantName: Default
    SerializedGuid: fcaa352e34dab1468ee1d8609cf4f373
    Colors:
    - m_color: {r: 1, g: 1, b: 1, a: 1}
      SerializedGuid: 6a3d6ec15d3a8545a465430ddb172aa2
    - m_color: {r: 1, g: 1, b: 1, a: 1}
      SerializedGuid: 5caae2811ad6fd4fb3178bc42dff5e24
    - m_color: {r: 1, g: 1, b: 1, a: 1}
      SerializedGuid: 88a38efcdcf2be4695c6230f43362dc1
    - m_color: {r: 1, g: 1, b: 1, a: 1}
      SerializedGuid: 9d5262bfa5dafa43bbbe4fef7f9461a1
    - m_color: {r: 1, g: 1, b: 1, a: 1}
      SerializedGuid: 3e8271f9375d5c46938db2c1e6933711
    - m_color: {r: 1, g: 1, b: 1, a: 1}
      SerializedGuid: 1b3ae830210e9544a38d844fc160c8e6
    Sprites: []
    Textures: []
    Fonts: []
    FontAssets: []
  ColorLabels:
  - m_label: Primary
    SerializedGuid: 6a3d6ec15d3a8545a465430ddb172aa2
  - m_label: Secondary
    SerializedGuid: 5caae2811ad6fd4fb3178bc42dff5e24
  - m_label: Accent 1
    SerializedGuid: 88a38efcdcf2be4695c6230f43362dc1
  - m_label: Accent 2
    SerializedGuid: 9d5262bfa5dafa43bbbe4fef7f9461a1
  - m_label: Text
    SerializedGuid: 3e8271f9375d5c46938db2c1e6933711
  - m_label: Disabled
    SerializedGuid: 1b3ae830210e9544a38d844fc160c8e6
  SpriteLabels: []
  TextureLabels: []
  FontLabels: []
  FontAssetLabels: []
  VariantsNames:
  - Default
  Variants:
  - m_variantName: Default
    SerializedGuid: fcaa352e34dab1468ee1d8609cf4f373
    Colors:
    - m_color: {r: 1, g: 1, b: 1, a: 1}
      SerializedGuid: 6a3d6ec15d3a8545a465430ddb172aa2
    - m_color: {r: 1, g: 1, b: 1, a: 1}
      SerializedGuid: 5caae2811ad6fd4fb3178bc42dff5e24
    - m_color: {r: 1, g: 1, b: 1, a: 1}
      SerializedGuid: 88a38efcdcf2be4695c6230f43362dc1
    - m_color: {r: 1, g: 1, b: 1, a: 1}
      SerializedGuid: 9d5262bfa5dafa43bbbe4fef7f9461a1
    - m_color: {r: 1, g: 1, b: 1, a: 1}
      SerializedGuid: 3e8271f9375d5c46938db2c1e6933711
    - m_color: {r: 1, g: 1, b: 1, a: 1}
      SerializedGuid: 1b3ae830210e9544a38d844fc160c8e6
    Sprites: []
    Textures: []
    Fonts: []
    FontAssets: []
